// +heroku goVersion go1.16

module github.com/centrifugal/centrifugo/v3

go 1.13

require (
	github.com/FZambia/eagle v0.0.2
	github.com/FZambia/statik v0.1.2-0.20180217151304-b9f012bb2a1b
	github.com/FZambia/tarantool v0.3.0
	github.com/FZambia/viper-lite v0.0.0-20220110144934-1899f66c7d0e
	github.com/centrifugal/centrifuge v0.21.1
	github.com/centrifugal/protocol v0.8.4
	github.com/cristalhq/jwt/v3 v3.1.0
	github.com/gobwas/glob v0.2.3
	github.com/google/uuid v1.3.0
	github.com/gorilla/securecookie v1.1.1
	github.com/gorilla/websocket v1.4.2
	github.com/klauspost/compress v1.14.2 // indirect
	github.com/mattn/go-isatty v0.0.12
	github.com/minio/highwayhash v1.0.2 // indirect
	github.com/mitchellh/mapstructure v1.4.3
	github.com/nats-io/nats-server/v2 v2.7.2 // indirect
	github.com/nats-io/nats.go v1.13.1-0.20220121202836-972a071d373d
	github.com/prometheus/client_golang v1.10.0
	github.com/prometheus/common v0.20.0 // indirect
	github.com/rakutentech/jwk-go v1.0.1
	github.com/rs/zerolog v1.21.0
	github.com/spf13/cobra v0.0.7
	github.com/stretchr/testify v1.7.0
	github.com/vmihailenco/msgpack/v5 v5.3.5
	golang.org/x/crypto v0.0.0-20220214200702-86341886e292
	golang.org/x/sync v0.0.0-20210220032951-036812b2e83c
	golang.org/x/sys v0.0.0-20220209214540-3681064d5158 // indirect
	golang.org/x/time v0.0.0-20220210224613-90d013bbcef8 // indirect
	google.golang.org/genproto v0.0.0-20210406143921-e86de6bf7a46 // indirect
	google.golang.org/grpc v1.37.0
	google.golang.org/protobuf v1.27.1
	gopkg.in/yaml.v3 v3.0.0-20210107192922-496545a6307b // indirect
)
